<?xml version="1.0" encoding="utf-8"?>
<!DOCTYPE svg PUBLIC "-//W3C//DTD SVG 1.1//EN" "http://www.w3.org/Graphics/SVG/1.1/DTD/svg11.dtd">

<svg version="1.1" id="ebene1" xmlns="http://www.w3.org/2000/svg" xmlns:xlink="http://www.w3.org/1999/xlink" x="0px" y="0px"
	 viewBox="0 0 10 10" enable-background="new 0 0 10 10" xml:space="preserve">
<rect x="0" y="0" width="10" height="10" fill="none" />
<path fill="none" stroke="#007799" stroke-width="1" stroke-linecap="round" d="M2,2.5 L8,2.5 M2,5 L8,5 M2,7.5 L8,7.5"/>
</svg>
